C:\Java Work\Workspace\steamxqdl\src\main\java\br\com\steamxqdl\service\JogoServiceImpl.java
C:\Java Work\Workspace\steamxqdl\src\main\java\br\com\steamxqdl\controller\GeneroController.java
C:\Java Work\Workspace\steamxqdl\src\main\java\br\com\steamxqdl\dao\JogoDao.java
C:\Java Work\Workspace\steamxqdl\src\main\java\br\com\steamxqdl\config\ConfiguracaoSecurity.java
C:\Java Work\Workspace\steamxqdl\src\main\java\br\com\steamxqdl\dao\GeneroDao.java
C:\Java Work\Workspace\steamxqdl\src\main\java\br\com\steamxqdl\config\ConfiguracaoSpringMvc.java
C:\Java Work\Workspace\steamxqdl\src\main\java\br\com\steamxqdl\domain\Jogo.java
C:\Java Work\Workspace\steamxqdl\src\main\java\br\com\steamxqdl\service\GeneroServiceImpl.java
C:\Java Work\Workspace\steamxqdl\src\main\java\br\com\steamxqdl\service\GeneroService.java
C:\Java Work\Workspace\steamxqdl\src\main\java\br\com\steamxqdl\controller\JogoController.java
C:\Java Work\Workspace\steamxqdl\src\main\java\br\com\steamxqdl\domain\Genero.java
C:\Java Work\Workspace\steamxqdl\src\main\java\br\com\steamxqdl\dao\GeneroDaoImpl.java
C:\Java Work\Workspace\steamxqdl\src\main\java\br\com\steamxqdl\service\JogoService.java
C:\Java Work\Workspace\steamxqdl\src\main\java\br\com\steamxqdl\SteamXqdlApplication.java
C:\Java Work\Workspace\steamxqdl\src\main\java\br\com\steamxqdl\dao\JogoDaoImpl.java
